<?xml version="1.0" encoding="UTF-8"?>
<model ref="r:90ecbb09-b2b9-4da2-9bdf-530103af39b2(org.clawiz.bpm.common.language.typesystem)">
  <persistence version="9" />
  <languages>
    <use id="7a5dda62-9140-4668-ab76-d5ed1746f2b2" name="jetbrains.mps.lang.typesystem" version="1" />
    <devkit ref="00000000-0000-4000-0000-1de82b3a4936(jetbrains.mps.devkit.aspect.typesystem)" />
  </languages>
  <imports />
  <registry />
</model>

